{
  "count": 37,
  "next": "https://swapi.py4e.com/api/species/?page=2",
  "previous": null,
  "results": [
      {
          "name": "Human",
          "classification": "mammal",
          "designation": "sentient",
          "average_height": "180",
          "skin_colors": "caucasian, black, asian, hispanic",
          "hair_colors": "blonde, brown, black, red",
          "eye_colors": "brown, blue, green, hazel, grey, amber",
          "average_lifespan": "120",
          "homeworld": "https://swapi.py4e.com/api/planets/9/",
          "language": "Galactic Basic",
          "people": [
              "https://swapi.py4e.com/api/people/1/",
              "https://swapi.py4e.com/api/people/4/",
              "https://swapi.py4e.com/api/people/5/",
              "https://swapi.py4e.com/api/people/6/",
              "https://swapi.py4e.com/api/people/7/",
              "https://swapi.py4e.com/api/people/9/",
              "https://swapi.py4e.com/api/people/10/",
              "https://swapi.py4e.com/api/people/11/",
              "https://swapi.py4e.com/api/people/12/",
              "https://swapi.py4e.com/api/people/14/",
              "https://swapi.py4e.com/api/people/18/",
              "https://swapi.py4e.com/api/people/21/",
              "https://swapi.py4e.com/api/people/22/",
              "https://swapi.py4e.com/api/people/25/",
              "https://swapi.py4e.com/api/people/26/",
              "https://swapi.py4e.com/api/people/28/",
              "https://swapi.py4e.com/api/people/29/",
              "https://swapi.py4e.com/api/people/32/",
              "https://swapi.py4e.com/api/people/34/",
              "https://swapi.py4e.com/api/people/35/",
              "https://swapi.py4e.com/api/people/39/",
              "https://swapi.py4e.com/api/people/42/",
              "https://swapi.py4e.com/api/people/43/",
              "https://swapi.py4e.com/api/people/51/",
              "https://swapi.py4e.com/api/people/62/",
              "https://swapi.py4e.com/api/people/66/",
              "https://swapi.py4e.com/api/people/67/",
              "https://swapi.py4e.com/api/people/68/",
              "https://swapi.py4e.com/api/people/69/",
              "https://swapi.py4e.com/api/people/74/",
              "https://swapi.py4e.com/api/people/81/",
              "https://swapi.py4e.com/api/people/84/",
              "https://swapi.py4e.com/api/people/85/",
              "https://swapi.py4e.com/api/people/86/",
              "https://swapi.py4e.com/api/people/88/"
          ],
          "films": [
              "https://swapi.py4e.com/api/films/1/",
              "https://swapi.py4e.com/api/films/2/",
              "https://swapi.py4e.com/api/films/3/",
              "https://swapi.py4e.com/api/films/4/",
              "https://swapi.py4e.com/api/films/5/",
              "https://swapi.py4e.com/api/films/6/",
              "https://swapi.py4e.com/api/films/7/"
          ],
          "created": "2014-12-10T13:52:11.567000Z",
          "edited": "2014-12-20T21:36:42.136000Z",
          "url": "https://swapi.py4e.com/api/species/1/"
      }
    ]
  }